Divisor/src/calcu_tb.vcd
$date
	Wed May 06 16:07:47 2026
$end
$version
	Icarus Verilog
$end
$timescale
	10ps
$end
$scope module calcu_tb $end
$var wire 4 ! row [3:0] $end
$var wire 7 " lit_segs [6:0] $end
$var wire 4 # lit_digit [3:0] $end
$var reg 1 $ clk $end
$var reg 4 % col [3:0] $end
$var reg 1 & reset $end
$var integer 32 ' errores [31:0] $end
$var integer 32 ( sim_press [31:0] $end
$var integer 32 ) target_col [31:0] $end
$var integer 32 * target_row [31:0] $end
$scope module uut $end
$var wire 1 $ clk $end
$var wire 4 + col [3:0] $end
$var wire 1 & reset $end
$var wire 5 , suma [4:0] $end
$var wire 4 - row [3:0] $end
$var wire 7 . lit_segs [6:0] $end
$var wire 4 / lit_digit [3:0] $end
$var wire 1 0 key_valid $end
$var wire 4 1 key_val [3:0] $end
$var reg 4 2 d0 [3:0] $end
$var reg 4 3 d1 [3:0] $end
$var reg 4 4 d2 [3:0] $end
$var reg 4 5 d3 [3:0] $end
$var reg 2 6 next_state [1:0] $end
$var reg 4 7 reg_A [3:0] $end
$var reg 4 8 reg_B [3:0] $end
$var reg 2 9 state [1:0] $end
$scope module inst_display $end
$var wire 1 $ clk $end
$var wire 4 : disp0 [3:0] $end
$var wire 4 ; disp1 [3:0] $end
$var wire 4 < disp2 [3:0] $end
$var wire 4 = disp3 [3:0] $end
$var wire 1 & reset $end
$var wire 1 > rst $end
$var wire 1 ? scan_tick $end
$var reg 4 @ current_hex_val [3:0] $end
$var reg 2 A cycled_digit [1:0] $end
$var reg 4 B lit_digit [3:0] $end
$var reg 7 C lit_segs [6:0] $end
$var reg 14 D scan_cnt [13:0] $end
$upscope $end
$scope module inst_teclado $end
$var wire 1 $ clk $end
$var wire 4 E col [3:0] $end
$var wire 1 F rst $end
$var wire 1 G scan_tick $end
$var parameter 2 H DEBOUNCE $end
$var parameter 32 I DEBOUNCE_TIME $end
$var parameter 2 J IDLE $end
$var parameter 2 K PRESSED $end
$var parameter 32 L SCAN_DIV $end
$var reg 32 M debounce_cnt [31:0] $end
$var reg 4 N key [3:0] $end
$var reg 4 O raw_key [3:0] $end
$var reg 1 P raw_pressed $end
$var reg 4 Q row [3:0] $end
$var reg 14 R scan_cnt [13:0] $end
$var reg 2 S scanned_row [1:0] $end
$var reg 4 T stable_key [3:0] $end
$var reg 2 U state [1:0] $end
$var reg 1 0 valid $end
$upscope $end
$upscope $end
$scope task press_key $end
$var integer 32 V c [31:0] $end
$var integer 32 W r [31:0] $end
$upscope $end
$upscope $end
$enddefinitions $end
$comment Show the parameter values. $end
$dumpall
b1111 L
b10 K
b0 J
b10100 I
b1 H
$end
#0
$dumpvars
b0 W
b0 V
b0 U
bx T
b0 S
b0 R
b1 Q
1P
b0 O
b0 N
b0 M
1G
1F
b1111 E
b0 D
b1000000 C
b0 B
b0 A
b0 @
1?
1>
b0 =
b0 <
b0 ;
b0 :
b0 9
b0 8
b0 7
b0 6
b0 5
b0 4
b0 3
b0 2
b0 1
00
b0 /
b1000000 .
b1 -
b0 ,
b1111 +
b0 *
b0 )
b0 (
b0 '
0&
b1111 %
0$
b0 #
b1000000 "
b1 !
$end
#1850
1$
#3700
0$
#5550
1$
#7400
0$
#9250
1$
#10000
0F
0>
1&
#11100
0$
#12950
1P
0?
b1 D
b1 #
b1 /
b1 B
b1 A
0G
b1 R
b1 S
b1 U
b0 T
1$
#14800
0$
#16650
b10 D
b1 M
b10 R
1$
#18500
0$
#20350
b11 D
b11 R
b10 M
1$
#22200
0$
#24050
b100 D
b11 M
b100 R
1$
#25900
0$
#27750
b101 D
b101 R
b100 M
1$
#29600
0$
#31450
b110 D
b101 M
b110 R
1$
#33300
0$
#35150
b111 D
b111 R
b110 M
1$
#37000
0$
#38850
b1000 D
b111 M
b1000 R
1$
#40700
0$
#42550
b1001 D
b1001 R
b1000 M
1$
#44400
0$
#46250
b1010 D
b1001 M
b1010 R
1$
#48100
0$
#49950
b1011 D
b1011 R
b1010 M
1$
#51800
0$
#53650
b1100 D
b1011 M
b1100 R
1$
#55500
0$
#57350
b1101 D
b1101 R
b1100 M
1$
#59200
0$
#61050
b1110 D
b1101 M
b1110 R
1$
#62900
0$
#64750
b1111 D
b1111 R
b1110 M
1$
#66600
0$
#68450
b10000 D
b1111 M
b10000 R
1$
#70300
0$
#72150
b10001 D
b10001 R
b10000 M
1$
#74000
0$
#75850
b10010 D
b10001 M
b10010 R
1$
#77700
0$
#79550
b10011 D
b10011 R
b10010 M
1$
#81400
0$
#83250
b10100 D
b10011 M
b10100 R
1$
#85100
0$
#86950
b10101 D
b10101 R
b10100 M
1$
#88800
0$
#90650
b10 6
b10110 D
b10 U
10
b10110 R
1$
#92500
0$
#94350
b1010 5
b1010 =
b10111 D
b10111 R
00
b10 9
1$
#96200
0$
#98050
b11000 D
b11000 R
1$
#99900
0$
#101750
b11001 D
b11001 R
1$
#103600
0$
#105450
b11010 D
b11010 R
1$
#107300
0$
#109150
b11011 D
b11011 R
1$
#110000
1P
b1101 %
b1101 +
b1101 E
b1 (
b1 )
b1 *
b1 V
b1 W
#111000
0$
#112850
b11100 D
b11100 R
1$
#114700
0$
#116550
b11101 D
b11101 R
1$
#118400
0$
#120250
b11110 D
b11110 R
1$
#122100
0$
#123950
b11111 D
b11111 R
1$
#125800
0$
#127650
b100000 D
b100000 R
1$
#129500
0$
#131350
b100001 D
b100001 R
1$
#133200
0$
#135050
b100010 D
b100010 R
1$
#136900
0$
#138750
b100011 D
b100011 R
1$
#140600
0$
#142450
b100100 D
b100100 R
1$
#144300
0$
#146150
b100101 D
b100101 R
1$
#148000
0$
#149850
b100110 D
b100110 R
1$
#151700
0$
#153550
b100111 D
b100111 R
1$
#155400
0$
#157250
b101000 D
b101000 R
1$
#159100
0$
#160950
b101001 D
b101001 R
1$
#162800
0$
#164650
b101010 D
b101010 R
1$
#166500
0$
#168350
b101011 D
b101011 R
1$
#170200
0$
#172050
b101100 D
b101100 R
1$
#173900
0$
#175750
b101101 D
b101101 R
1$
#177600
0$
#179450
b101110 D
b101110 R
1$
#181300
0$
#183150
b101111 D
b101111 R
1$
#185000
0$
#186850
b110000 D
b110000 R
1$
#188700
0$
#190550
b110001 D
b110001 R
1$
#192400
0$
#194250
b110010 D
b110010 R
1$
#196100
0$
#197950
b110011 D
b110011 R
1$
#199800
0$
#201650
b110100 D
b110100 R
1$
#203500
0$
#205350
b110101 D
b110101 R
1$
#207200
0$
#209050
b110110 D
b110110 R
1$
#210900
0$
#212750
b110111 D
b110111 R
1$
#214600
0$
#216450
b111000 D
b111000 R
1$
#218300
0$
#220150
b111001 D
b111001 R
1$
#222000
0$
#223850
b111010 D
b111010 R
1$
#225700
0$
#227550
b111011 D
b111011 R
1$
#229400
0$
#231250
b111100 D
b111100 R
1$
#233100
0$
#234950
b111101 D
b111101 R
1$
#236800
0$
#238650
b111110 D
b111110 R
1$
#240500
0$
#242350
b111111 D
b111111 R
1$
#244200
0$
#246050
b1000000 D
b1000000 R
1$
#247900
0$
#249750
b1000001 D
b1000001 R
1$
#251600
0$
#253450
b1000010 D
b1000010 R
1$
#255300
0$
#257150
b1000011 D
b1000011 R
1$
#259000
0$
#260850
b1000100 D
b1000100 R
1$
#262700
0$
#264550
b1000101 D
b1000101 R
1$
#266400
0$
#268250
b1000110 D
b1000110 R
1$
#270100
0$
#271950
b1000111 D
b1000111 R
1$
#273800
0$
#275650
b1001000 D
b1001000 R
1$
#277500
0$
#279350
b1001001 D
b1001001 R
1$
#281200
0$
#283050
b1001010 D
b1001010 R
1$
#284900
0$
#286750
b1001011 D
b1001011 R
1$
#288600
0$
#290450
b1001100 D
b1001100 R
1$
#292300
0$
#294150
b1001101 D
b1001101 R
1$
#296000
0$
#297850
b1001110 D
b1001110 R
1$
#299700
0$
#301550
b1001111 D
b1001111 R
1$
#303400
0$
#305250
b1010000 D
b1010000 R
1$
#307100
0$
#308950
b1010001 D
b1010001 R
1$
#310800
0$
#312650
b1010010 D
b1010010 R
1$
#314500
0$
#316350
b1010011 D
b1010011 R
1$
#318200
0$
#320050
b1010100 D
b1010100 R
1$
#321900
0$
#323750
b1010101 D
b1010101 R
1$
#325600
0$
#327450
b1010110 D
b1010110 R
1$
#329300
0$
#331150
b1010111 D
b1010111 R
1$
#333000
0$
#334850
b1011000 D
b1011000 R
1$
#336700
0$
#338550
b1011001 D
b1011001 R
1$
#340400
0$
#342250
b1011010 D
b1011010 R
1$
#344100
0$
#345950
b1011011 D
b1011011 R
1$
#347800
0$
#349650
b1011100 D
b1011100 R
1$
#351500
0$
#353350
b1011101 D
b1011101 R
1$
#355200
0$
#357050
b1011110 D
b1011110 R
1$
#358900
0$
#360750
b1011111 D
b1011111 R
1$
#362600
0$
#364450
b1100000 D
b1100000 R
1$
#366300
0$
#368150
b1100001 D
b1100001 R
1$
#370000
0$
#371850
b1100010 D
b1100010 R
1$
#373700
0$
#375550
b1100011 D
b1100011 R
1$
#377400
0$
#379250
b1100100 D
b1100100 R
1$
#381100
0$
#382950
b1100101 D
b1100101 R
1$
#384800
0$
#386650
b1100110 D
b1100110 R
1$
#388500
0$
#390350
b1100111 D
b1100111 R
1$
#392200
0$
#394050
b1101000 D
b1101000 R
1$
#395900
0$
#397750
b1101001 D
b1101001 R
1$
#399600
0$
#401450
b1101010 D
b1101010 R
1$
#403300
0$
#405150
b1101011 D
b1101011 R
1$
#407000
0$
#408850
b1101100 D
b1101100 R
1$
#410700
0$
#412550
b1101101 D
b1101101 R
1$
#414400
0$
#416250
b1101110 D
b1101110 R
1$
#418100
0$
#419950
b1101111 D
b1101111 R
1$
#421800
0$
#423650
b1110000 D
b1110000 R
1$
#425500
0$
#427350
b1110001 D
b1110001 R
1$
#429200
0$
#431050
b1110010 D
b1110010 R
1$
#432900
0$
#434750
b1110011 D
b1110011 R
1$
#436600
0$
#438450
b1110100 D
b1110100 R
1$
#440300
0$
#442150
b1110101 D
b1110101 R
1$
#444000
0$
#445850
b1110110 D
b1110110 R
1$
#447700
0$
#449550
b1110111 D
b1110111 R
1$
#451400
0$
#453250
b1111000 D
b1111000 R
1$
#455100
0$
#456950
b1111001 D
b1111001 R
1$
#458800
0$
#460650
b1111010 D
b1111010 R
1$
#462500
0$
#464350
b1111011 D
b1111011 R
1$
#466200
0$
#468050
b1111100 D
b1111100 R
1$
#469900
0$
#471750
b1111101 D
b1111101 R
1$
#473600
0$
#475450
b1111110 D
b1111110 R
1$
#477300
0$
#479150
b1111111 D
b1111111 R
1$
#481000
0$
#482850
b10000000 D
b10000000 R
1$
#484700
0$
#486550
b10000001 D
b10000001 R
1$
#488400
0$
#490250
b10000010 D
b10000010 R
1$
#492100
0$
#493950
b10000011 D
b10000011 R
1$
#495800
0$
#497650
b10000100 D
b10000100 R
1$
#499500
0$
#501350
b10000101 D
b10000101 R
1$
#503200
0$
#505050
b10000110 D
b10000110 R
1$
#506900
0$
#508750
b10000111 D
b10000111 R
1$
#510600
0$
#512450
b10001000 D
b10001000 R
1$
#514300
0$
#516150
b10001001 D
b10001001 R
1$
#518000
0$
#519850
b10001010 D
b10001010 R
1$
#521700
0$
#523550
b10001011 D
b10001011 R
1$
#525400
0$
#527250
b10001100 D
b10001100 R
1$
#529100
0$
#530950
b10001101 D
b10001101 R
1$
#532800
0$
#534650
b10001110 D
b10001110 R
1$
#536500
0$
#538350
b10001111 D
b10001111 R
1$
#540200
0$
#542050
b10010000 D
b10010000 R
1$
#543900
0$
#545750
b10010001 D
b10010001 R
1$
#547600
0$
#549450
b10010010 D
b10010010 R
1$
#551300
0$
#553150
b10010011 D
b10010011 R
1$
#555000
0$
#556850
b10010100 D
b10010100 R
1$
#558700
0$
#560550
b10010101 D
b10010101 R
1$
#562400
0$
#564250
b10010110 D
b10010110 R
1$
#566100
0$
#567950
b10010111 D
b10010111 R
1$
#569800
0$
#571650
b10011000 D
b10011000 R
1$
#573500
0$
#575350
b10011001 D
b10011001 R
1$
#577200
0$
#579050
b10011010 D
b10011010 R
1$
#580900
0$
#582750
b10011011 D
b10011011 R
1$
#584600
0$
#586450
b10011100 D
b10011100 R
1$
#588300
0$
#590150
b10011101 D
b10011101 R
1$
#592000
0$
#593850
b10011110 D
b10011110 R
1$
#595700
0$
#597550
b10011111 D
b10011111 R
1$
#599400
0$
#601250
b10100000 D
b10100000 R
1$
#603100
0$
#604950
b10100001 D
b10100001 R
1$
#606800
0$
#608650
b10100010 D
b10100010 R
1$
#610500
0$
#612350
b10100011 D
b10100011 R
1$
#614200
0$
#616050
b10100100 D
b10100100 R
1$
#617900
0$
#619750
b10100101 D
b10100101 R
1$
#621600
0$
#623450
b10100110 D
b10100110 R
1$
#625300
0$
#627150
b10100111 D
b10100111 R
1$
#629000
0$
#630850
b10101000 D
b10101000 R
1$
#632700
0$
#634550
b10101001 D
b10101001 R
1$
#636400
0$
#638250
b10101010 D
b10101010 R
1$
#640100
0$
#641950
b10101011 D
b10101011 R
1$
#643800
0$
#645650
b10101100 D
b10101100 R
1$
#647500
0$
#649350
b10101101 D
b10101101 R
1$
#651200
0$
#653050
b10101110 D
b10101110 R
1$
#654900
0$
#656750
b10101111 D
b10101111 R
1$
#658600
0$
#660450
b10110000 D
b10110000 R
1$
#662300
0$
#664150
b10110001 D
b10110001 R
1$
#666000
0$
#667850
b10110010 D
b10110010 R
1$
#669700
0$
#671550
b10110011 D
b10110011 R
1$
#673400
0$
#675250
b10110100 D
b10110100 R
1$
#677100
0$
#678950
b10110101 D
b10110101 R
1$
#680800
0$
#682650
b10110110 D
b10110110 R
1$
#684500
0$
#686350
b10110111 D
b10110111 R
1$
#688200
0$
#690050
b10111000 D
b10111000 R
1$
#691900
0$
#693750
b10111001 D
b10111001 R
1$
#695600
0$
#697450
b10111010 D
b10111010 R
1$
#699300
0$
#701150
b10111011 D
b10111011 R
1$
#703000
0$
#704850
b10111100 D
b10111100 R
1$
#706700
0$
#708550
b10111101 D
b10111101 R
1$
#710400
0$
#712250
b10111110 D
b10111110 R
1$
#714100
0$
#715950
b10111111 D
b10111111 R
1$
#717800
0$
#719650
b11000000 D
b11000000 R
1$
#721500
0$
#723350
b11000001 D
b11000001 R
1$
#725200
0$
#727050
b11000010 D
b11000010 R
1$
#728900
0$
#730750
b11000011 D
b11000011 R
1$
#732600
0$
#734450
b11000100 D
b11000100 R
1$
#736300
0$
#738150
b11000101 D
b11000101 R
1$
#740000
0$
#741850
b11000110 D
b11000110 R
1$
#743700
0$
#745550
b11000111 D
b11000111 R
1$
#747400
0$
#749250
b11001000 D
b11001000 R
1$
#751100
0$
#752950
b11001001 D
b11001001 R
1$
#754800
0$
#756650
b11001010 D
b11001010 R
1$
#758500
0$
#760350
b11001011 D
b11001011 R
1$
#762200
0$
#764050
b11001100 D
b11001100 R
1$
#765900
0$
#767750
b11001101 D
b11001101 R
1$
#769600
0$
#771450
b11001110 D
b11001110 R
1$
#773300
0$
#775150
b11001111 D
b11001111 R
1$
#777000
0$
#778850
b11010000 D
b11010000 R
1$
#780700
0$
#782550
b11010001 D
b11010001 R
1$
#784400
0$
#786250
b11010010 D
b11010010 R
1$
#788100
0$
#789950
b11010011 D
b11010011 R
1$
#791800
0$
#793650
b11010100 D
b11010100 R
1$
#795500
0$
#797350
b11010101 D
b11010101 R
1$
#799200
0$
#801050
b11010110 D
b11010110 R
1$
#802900
0$
#804750
b11010111 D
b11010111 R
1$
#806600
0$
#808450
b11011000 D
b11011000 R
1$
#810300
0$
#812150
b11011001 D
b11011001 R
1$
#814000
0$
#815850
b11011010 D
b11011010 R
1$
#817700
0$
#819550
b11011011 D
b11011011 R
1$
#821400
0$
#823250
b11011100 D
b11011100 R
1$
#825100
0$
#826950
b11011101 D
b11011101 R
1$
#828800
0$
#830650
b11011110 D
b11011110 R
1$
#832500
0$
#834350
b11011111 D
b11011111 R
1$
#836200
0$
#838050
b11100000 D
b11100000 R
1$
#839900
0$
#841750
b11100001 D
b11100001 R
1$
#843600
0$
#845450
b11100010 D
b11100010 R
1$
#847300
0$
#849150
b11100011 D
b11100011 R
1$
#851000
0$
#852850
b11100100 D
b11100100 R
1$
#854700
0$
#856550
b11100101 D
b11100101 R
1$
#858400
0$
#860250
b11100110 D
b11100110 R
1$
#862100
0$
#863950
b11100111 D
b11100111 R
1$
#865800
0$
#867650
b11101000 D
b11101000 R
1$
#869500
0$
#871350
b11101001 D
b11101001 R
1$
#873200
0$
#875050
b11101010 D
b11101010 R
1$
#876900
0$
#878750
b11101011 D
b11101011 R
1$
#880600
0$
#882450
b11101100 D
b11101100 R
1$
#884300
0$
#886150
b11101101 D
b11101101 R
1$
#888000
0$
#889850
b11101110 D
b11101110 R
1$
#891700
0$
#893550
b11101111 D
b11101111 R
1$
#895400
0$
#897250
b11110000 D
b11110000 R
1$
#899100
0$
#900950
b11110001 D
b11110001 R
1$
#902800
0$
#904650
b11110010 D
b11110010 R
1$
#906500
0$
#908350
b11110011 D
b11110011 R
1$
#910200
0$
#912050
b11110100 D
b11110100 R
1$
#913900
0$
#915750
b11110101 D
b11110101 R
1$
#917600
0$
#919450
b11110110 D
b11110110 R
1$
#921300
0$
#923150
b11110111 D
b11110111 R
1$
#925000
0$
#926850
b11111000 D
b11111000 R
1$
#928700
0$
#930550
b11111001 D
b11111001 R
1$
#932400
0$
#934250
b11111010 D
b11111010 R
1$
#936100
0$
#937950
b11111011 D
b11111011 R
1$
#939800
0$
#941650
b11111100 D
b11111100 R
1$
#943500
0$
#945350
b11111101 D
b11111101 R
1$
#947200
0$
#949050
b11111110 D
b11111110 R
1$
#950900
0$
#952750
b11111111 D
b11111111 R
1$
#954600
0$
#956450
b100000000 D
b100000000 R
1$
#958300
0$
#960150
b100000001 D
b100000001 R
1$
#962000
0$
#963850
b100000010 D
b100000010 R
1$
#965700
0$
#967550
b100000011 D
b100000011 R
1$
#969400
0$
#971250
b100000100 D
b100000100 R
1$
#973100
0$
#974950
b100000101 D
b100000101 R
1$
#976800
0$
#978650
b100000110 D
b100000110 R
1$
#980500
0$
#982350
b100000111 D
b100000111 R
1$
#984200
0$
#986050
b100001000 D
b100001000 R
1$
#987900
0$
#989750
b100001001 D
b100001001 R
1$
#991600
0$
#993450
b100001010 D
b100001010 R
1$
#995300
0$
#997150
b100001011 D
b100001011 R
1$
#999000
0$
#1000850
b100001100 D
b100001100 R
1$
#1002700
0$
#1004550
b100001101 D
b100001101 R
1$
#1006400
0$
#1008250
b100001110 D
b100001110 R
1$
#1010100
0$
#1011950
b100001111 D
b100001111 R
1$
#1013800
0$
#1015650
b100010000 D
b100010000 R
1$
#1017500
0$
#1019350
b100010001 D
b100010001 R
1$
#1021200
0$
#1023050
b100010010 D
b100010010 R
1$
#1024900
0$
#1026750
b100010011 D
b100010011 R
1$
#1028600
0$
#1030450
b100010100 D
b100010100 R
1$
#1032300
0$
#1034150
b100010101 D
b100010101 R
1$
#1036000
0$
#1037850
b100010110 D
b100010110 R
1$
#1039700
0$
#1041550
b100010111 D
b100010111 R
1$
#1043400
0$
#1045250
b100011000 D
b100011000 R
1$
#1047100
0$
#1048950
b100011001 D
b100011001 R
1$
#1050800
0$
#1052650
b100011010 D
b100011010 R
1$
#1054500
0$
#1056350
b100011011 D
b100011011 R
1$
#1058200
0$
#1060050
b100011100 D
b100011100 R
1$
#1061900
0$
#1063750
b100011101 D
b100011101 R
1$
#1065600
0$
#1067450
b100011110 D
b100011110 R
1$
#1069300
0$
#1071150
b100011111 D
b100011111 R
1$
#1073000
0$
#1074850
b100100000 D
b100100000 R
1$
#1076700
0$
#1078550
b100100001 D
b100100001 R
1$
#1080400
0$
#1082250
b100100010 D
b100100010 R
1$
#1084100
0$
#1085950
b100100011 D
b100100011 R
1$
#1087800
0$
#1089650
b100100100 D
b100100100 R
1$
#1091500
0$
#1093350
b100100101 D
b100100101 R
1$
#1095200
0$
#1097050
b100100110 D
b100100110 R
1$
#1098900
0$
#1100750
b100100111 D
b100100111 R
1$
#1102600
0$
#1104450
b100101000 D
b100101000 R
1$
#1106300
0$
#1108150
b100101001 D
b100101001 R
1$
#1110000
0$
#1111850
b100101010 D
b100101010 R
1$
#1113700
0$
#1115550
b100101011 D
b100101011 R
1$
#1117400
0$
#1119250
b100101100 D
b100101100 R
1$
#1121100
0$
#1122950
b100101101 D
b100101101 R
1$
#1124800
0$
#1126650
b100101110 D
b100101110 R
1$
#1128500
0$
#1130350
b100101111 D
b100101111 R
1$
#1132200
0$
#1134050
b100110000 D
b100110000 R
1$
#1135900
0$
#1137750
b100110001 D
b100110001 R
1$
#1139600
0$
#1141450
b100110010 D
b100110010 R
1$
#1143300
0$
#1145150
b100110011 D
b100110011 R
1$
#1147000
0$
#1148850
b100110100 D
b100110100 R
1$
#1150700
0$
#1152550
b100110101 D
b100110101 R
1$
#1154400
0$
#1156250
b100110110 D
b100110110 R
1$
#1158100
0$
#1159950
b100110111 D
b100110111 R
1$
#1161800
0$
#1163650
b100111000 D
b100111000 R
1$
#1165500
0$
#1167350
b100111001 D
b100111001 R
1$
#1169200
0$
#1171050
b100111010 D
b100111010 R
1$
#1172900
0$
#1174750
b100111011 D
b100111011 R
1$
#1176600
0$
#1178450
b100111100 D
b100111100 R
1$
#1180300
0$
#1182150
b100111101 D
b100111101 R
1$
#1184000
0$
#1185850
b100111110 D
b100111110 R
1$
#1187700
0$
#1189550
b100111111 D
b100111111 R
1$
#1191400
0$
#1193250
b101000000 D
b101000000 R
1$
#1195100
0$
#1196950
b101000001 D
b101000001 R
1$
#1198800
0$
#1200650
b101000010 D
b101000010 R
1$
#1202500
0$
#1204350
b101000011 D
b101000011 R
1$
#1206200
0$
#1208050
b101000100 D
b101000100 R
1$
#1209900
0$
#1211750
b101000101 D
b101000101 R
1$
#1213600
0$
#1215450
b101000110 D
b101000110 R
1$
#1217300
0$
#1219150
b101000111 D
b101000111 R
1$
#1221000
0$
#1222850
b101001000 D
b101001000 R
1$
#1224700
0$
#1226550
b101001001 D
b101001001 R
1$
#1228400
0$
#1230250
b101001010 D
b101001010 R
1$
#1232100
0$
#1233950
b101001011 D
b101001011 R
1$
#1235800
0$
#1237650
b101001100 D
b101001100 R
1$
#1239500
0$
#1241350
b101001101 D
b101001101 R
1$
#1243200
0$
#1245050
b101001110 D
b101001110 R
1$
#1246900
0$
#1248750
b101001111 D
b101001111 R
1$
#1250600
0$
#1252450
b101010000 D
b101010000 R
1$
#1254300
0$
#1256150
b101010001 D
b101010001 R
1$
#1258000
0$
#1259850
b101010010 D
b101010010 R
1$
#1261700
0$
#1263550
b101010011 D
b101010011 R
1$
#1265400
0$
#1267250
b101010100 D
b101010100 R
1$
#1269100
0$
#1270950
b101010101 D
b101010101 R
1$
#1272800
0$
#1274650
b101010110 D
b101010110 R
1$
#1276500
0$
#1278350
b101010111 D
b101010111 R
1$
#1280200
0$
#1282050
b101011000 D
b101011000 R
1$
#1283900
0$
#1285750
b101011001 D
b101011001 R
1$
#1287600
0$
#1289450
b101011010 D
b101011010 R
1$
#1291300
0$
#1293150
b101011011 D
b101011011 R
1$
#1295000
0$
#1296850
b101011100 D
b101011100 R
1$
#1298700
0$
#1300550
b101011101 D
b101011101 R
1$
#1302400
0$
#1304250
b101011110 D
b101011110 R
1$
#1306100
0$
#1307950
b101011111 D
b101011111 R
1$
#1309800
0$
#1311650
b101100000 D
b101100000 R
1$
#1313500
0$
#1315350
b101100001 D
b101100001 R
1$
#1317200
0$
#1319050
b101100010 D
b101100010 R
1$
#1320900
0$
#1322750
b101100011 D
b101100011 R
1$
#1324600
0$
#1326450
b101100100 D
b101100100 R
1$
#1328300
0$
#1330150
b101100101 D
b101100101 R
1$
#1332000
0$
#1333850
b101100110 D
b101100110 R
1$
#1335700
0$
#1337550
b101100111 D
b101100111 R
1$
#1339400
0$
#1341250
b101101000 D
b101101000 R
1$
#1343100
0$
#1344950
b101101001 D
b101101001 R
1$
#1346800
0$
#1348650
b101101010 D
b101101010 R
1$
#1350500
0$
#1352350
b101101011 D
b101101011 R
1$
#1354200
0$
#1356050
b101101100 D
b101101100 R
1$
#1357900
0$
#1359750
b101101101 D
b101101101 R
1$
#1361600
0$
#1363450
b101101110 D
b101101110 R
1$
#1365300
0$
#1367150
b101101111 D
b101101111 R
1$
#1369000
0$
#1370850
b101110000 D
b101110000 R
1$
#1372700
0$
#1374550
b101110001 D
b101110001 R
1$
#1376400
0$
#1378250
b101110010 D
b101110010 R
1$
#1380100
0$
#1381950
b101110011 D
b101110011 R
1$
#1383800
0$
#1385650
b101110100 D
b101110100 R
1$
#1387500
0$
#1389350
b101110101 D
b101110101 R
1$
#1391200
0$
#1393050
b101110110 D
b101110110 R
1$
#1394900
0$
#1396750
b101110111 D
b101110111 R
1$
#1398600
0$
#1400450
b101111000 D
b101111000 R
1$
#1402300
0$
#1404150
b101111001 D
b101111001 R
1$
#1406000
0$
#1407850
b101111010 D
b101111010 R
1$
#1409700
0$
#1411550
b101111011 D
b101111011 R
1$
#1413400
0$
#1415250
b101111100 D
b101111100 R
1$
#1417100
0$
#1418950
b101111101 D
b101111101 R
1$
#1420800
0$
#1422650
b101111110 D
b101111110 R
1$
#1424500
0$
#1426350
b101111111 D
b101111111 R
1$
#1428200
0$
#1430050
b110000000 D
b110000000 R
1$
#1431900
0$
#1433750
b110000001 D
b110000001 R
1$
#1435600
0$
#1437450
b110000010 D
b110000010 R
1$
#1439300
0$
#1441150
b110000011 D
b110000011 R
1$
#1443000
0$
#1444850
b110000100 D
b110000100 R
1$
#1446700
0$
#1448550
b110000101 D
b110000101 R
1$
#1450400
0$
#1452250
b110000110 D
b110000110 R
1$
#1454100
0$
#1455950
b110000111 D
b110000111 R
1$
#1457800
0$
#1459650
b110001000 D
b110001000 R
1$
#1461500
0$
#1463350
b110001001 D
b110001001 R
1$
#1465200
0$
#1467050
b110001010 D
b110001010 R
1$
#1468900
0$
#1470750
b110001011 D
b110001011 R
1$
#1472600
0$
#1474450
b110001100 D
b110001100 R
1$
#1476300
0$
#1478150
b110001101 D
b110001101 R
1$
#1480000
0$
#1481850
b110001110 D
b110001110 R
1$
#1483700
0$
#1485550
b110001111 D
b110001111 R
1$
#1487400
0$
#1489250
b110010000 D
b110010000 R
1$
#1491100
0$
#1492950
b110010001 D
b110010001 R
1$
#1494800
0$
#1496650
b110010010 D
b110010010 R
1$
#1498500
0$
#1500350
b110010011 D
b110010011 R
1$
#1502200
0$
#1504050
b110010100 D
b110010100 R
1$
#1505900
0$
#1507750
b110010101 D
b110010101 R
1$
#1509600
0$
#1511450
b110010110 D
b110010110 R
1$
#1513300
0$
#1515150
b110010111 D
b110010111 R
1$
#1517000
0$
#1518850
b110011000 D
b110011000 R
1$
#1520700
0$
#1522550
b110011001 D
b110011001 R
1$
#1524400
0$
#1526250
b110011010 D
b110011010 R
1$
#1528100
0$
#1529950
b110011011 D
b110011011 R
1$
#1531800
0$
#1533650
b110011100 D
b110011100 R
1$
#1535500
0$
#1537350
b110011101 D
b110011101 R
1$
#1539200
0$
#1541050
b110011110 D
b110011110 R
1$
#1542900
0$
#1544750
b110011111 D
b110011111 R
1$
#1546600
0$
#1548450
b110100000 D
b110100000 R
1$
#1550300
0$
#1552150
b110100001 D
b110100001 R
1$
#1554000
0$
#1555850
b110100010 D
b110100010 R
1$
#1557700
0$
#1559550
b110100011 D
b110100011 R
1$
#1561400
0$
#1563250
b110100100 D
b110100100 R
1$
#1565100
0$
#1566950
b110100101 D
b110100101 R
1$
#1568800
0$
#1570650
b110100110 D
b110100110 R
1$
#1572500
0$
#1574350
b110100111 D
b110100111 R
1$
#1576200
0$
#1578050
b110101000 D
b110101000 R
1$
#1579900
0$
#1581750
b110101001 D
b110101001 R
1$
#1583600
0$
#1585450
b110101010 D
b110101010 R
1$
#1587300
0$
#1589150
b110101011 D
b110101011 R
1$
#1591000
0$
#1592850
b110101100 D
b110101100 R
1$
#1594700
0$
#1596550
b110101101 D
b110101101 R
1$
#1598400
0$
#1600250
b110101110 D
b110101110 R
1$
#1602100
0$
#1603950
b110101111 D
b110101111 R
1$
#1605800
0$
#1607650
b110110000 D
b110110000 R
1$
#1609500
0$
#1611350
b110110001 D
b110110001 R
1$
#1613200
0$
#1615050
b110110010 D
b110110010 R
1$
#1616900
0$
#1618750
b110110011 D
b110110011 R
1$
#1620600
0$
#1622450
b110110100 D
b110110100 R
1$
#1624300
0$
#1626150
b110110101 D
b110110101 R
1$
#1628000
0$
#1629850
b110110110 D
b110110110 R
1$
#1631700
0$
#1633550
b110110111 D
b110110111 R
1$
#1635400
0$
#1637250
b110111000 D
b110111000 R
1$
#1639100
0$
#1640950
b110111001 D
b110111001 R
1$
#1642800
0$
#1644650
b110111010 D
b110111010 R
1$
#1646500
0$
#1648350
b110111011 D
b110111011 R
1$
#1650200
0$
#1652050
b110111100 D
b110111100 R
1$
#1653900
0$
#1655750
b110111101 D
b110111101 R
1$
#1657600
0$
#1659450
b110111110 D
b110111110 R
1$
#1661300
0$
#1663150
b110111111 D
b110111111 R
1$
#1665000
0$
#1666850
b111000000 D
b111000000 R
1$
#1668700
0$
#1670550
b111000001 D
b111000001 R
1$
#1672400
0$
#1674250
b111000010 D
b111000010 R
1$
#1676100
0$
#1677950
b111000011 D
b111000011 R
1$
#1679800
0$
#1681650
b111000100 D
b111000100 R
1$
#1683500
0$
#1685350
b111000101 D
b111000101 R
1$
#1687200
0$
#1689050
b111000110 D
b111000110 R
1$
#1690900
0$
#1692750
b111000111 D
b111000111 R
1$
#1694600
0$
#1696450
b111001000 D
b111001000 R
1$
#1698300
0$
#1700150
b111001001 D
b111001001 R
1$
#1702000
0$
#1703850
b111001010 D
b111001010 R
1$
#1705700
0$
#1707550
b111001011 D
b111001011 R
1$
#1709400
0$
